ISSS608-VAA - Take-Home Exercise 2
…
carp_graph <- tbl_graph(nodes = carp_nodes_extract,
                       edges = carp_edges_aggregated,
                       directed = TRUE)

carp_graph

# A tbl_graph: 245 nodes and 161 edges
#
# A directed multigraph with 90 components
#
# A tibble: 245 × 1
  id                                              
  <chr>                                           
1 Adriatic Squid Limited Liability Company Current
2 AquaBite Limited Liability Company Marine       
3 Arunachal Pradesh s &                           
4 Arunachal Pradesh s A/S Transport               
5 Bahía del Sol SRL Solutions                     
6 Baltic Sprat Corp Roe                           
# ℹ 239 more rows
#
# A tibble: 161 × 8
   from    to HS_Code Value_OMU_Total Count Average_OMU Total_Weight_KG
  <int> <int>   <int>           <dbl> <int>       <dbl>           <int>
1     1   138  840999               0     1         NaN            5510
2     2   139  160419           63125     1       63125           20775
3     3   140  950300               0     1         NaN            6150
# ℹ 158 more rows
# ℹ 1 more variable: Average_Weight_KG <dbl>
…
cmac_graph <- tbl_graph(nodes = cmac_nodes_extract,
                       edges = cmac_edges_aggregated,
                       directed = TRUE)

cmac_graph

# A tbl_graph: 193 nodes and 128 edges
#
# A directed multigraph with 73 components
#
# A tibble: 193 × 1
  id                               
  <chr>                            
1 1 Ltd. Liability Co Cargo        
2 2 Limited Liability Company      
3 Ancla de Oro Ltd. Corporation    
4 Aqua Aura SE Marine life         
5 Arunachal Pradesh s A/S Transport
6 Arunachal Pradesh s Plc          
# ℹ 187 more rows
#
# A tibble: 128 × 8
   from    to HS_Code Value_OMU_Total Count Average_OMU Total_Weight_KG
  <int> <int>   <int>           <dbl> <int>       <dbl>           <int>
1     1   105   30617          452080     2      226040           39570
2     2   106   30323          156660     6       26110          107640
3     3   107   90412          260120     2      130060           40730
# ℹ 125 more rows
# ℹ 1 more variable: Average_Weight_KG <dbl>
…
catfish_graph <- tbl_graph(nodes = catfish_nodes_extract,
                       edges = catfish_edges_aggregated,
                       directed = TRUE)

catfish_graph

# A tbl_graph: 368 nodes and 265 edges
#
# A directed multigraph with 119 components
#
# A tibble: 368 × 1
  id                                             
  <chr>                                          
1 9 Charter Boat  Plc Overseas                   
2 Adriatic Catch Ltd. Liability Co Transportation
3 Albertine Rift  LLC Line                       
4 Ancla de Oro Ges.m.b.H.                        
5 Andhra Pradesh   Sextant Oyj Forwading         
6 Aqua Aura SE Marine life                       
# ℹ 362 more rows
#
# A tibble: 265 × 6
   from    to HS_Code Value_OMU_Total Count Average_OMU
  <int> <int>   <int>           <dbl> <int>       <dbl>
1     1   219   30461          158155     1      158155
2     2   220   30617          198030     1      198030
3     3   221  761699               0     1         NaN
# ℹ 262 more rows
…
herring_graph <- tbl_graph(nodes = herring_nodes_extract,
                       edges = herring_edges_aggregated,
                       directed = TRUE)

herring_graph

# A tbl_graph: 199 nodes and 141 edges
#
# A directed multigraph with 70 components
#
# A tibble: 199 × 1
  id                                                
  <chr>                                             
1 Ancla del Este Plc Industrial                     
2 Andhra Pradesh   Limited Liability Company Tilapia
3 Anthony Limited Liability Company                 
4 Atlantic Ocean Coast  _ Ges.m.b.H. Express        
5 Bahía Azul Ltd Holdings                           
6 Bahía del Sol ОАО                                 
# ℹ 193 more rows
#
# A tibble: 141 × 8
   from    to HS_Code Value_OMU_Total Count Average_OMU Total_Weight_KG
  <int> <int>   <int>           <dbl> <int>       <dbl>           <int>
1     1   106  940360               0     1         NaN            5300
2     2   107  730719           39520     1       39520           16940
3     3   108  200899           40305     1       40305           17360
# ℹ 138 more rows
# ℹ 1 more variable: Average_Weight_KG <dbl>
…
lichen_graph <- tbl_graph(nodes = lichen_nodes_extract,
                       edges = lichen_edges_aggregated,
                       directed = TRUE)

lichen_graph

# A tbl_graph: 18 nodes and 19 edges
#
# A directed multigraph with 7 components
#
# A tibble: 18 × 1
  id                               
  <chr>                            
1 "Harbah Motorboat AG Shipping"   
2 "Jammu Limited Liability Company"
3 "Lake Nakuru  Co Freight "       
4 "Mar del Norte OJSC"             
5 "Ob River Coral AB Marine"       
6 "Zambezi Delta  Inc Brothers"    
# ℹ 12 more rows
#
# A tibble: 19 × 8
   from    to HS_Code Value_OMU_Total Count Average_OMU Total_Weight_KG
  <int> <int>   <int>           <dbl> <int>       <dbl>           <int>
1     1     8  845490               0    31         NaN          210955
2     2     9  920590               0    14         NaN           39425
3     2     9  920710               0     4         NaN            9740
# ℹ 16 more rows
# ℹ 1 more variable: Average_Weight_KG <dbl>
…
mackerel_graph <- tbl_graph(nodes = mackerel_nodes_extract,
                       edges = mackerel_edges_aggregated,
                       directed = TRUE)

mackerel_graph

# A tbl_graph: 243 nodes and 188 edges
#
# A directed multigraph with 75 components
#
# A tibble: 243 × 1
  id                                           
  <chr>                                        
1 Ancla Marina & Ltd. Liability Co Distribution
2 Ancla de Oro Kga Import                      
3 Anthony Limited Liability Company            
4 Aquatic Adventures Ltd. Liability Co         
5 Arunachal Pradesh s AS & Son's               
6 Arunachal Pradesh s Ltd. Corporation Coast   
# ℹ 237 more rows
#
# A tibble: 188 × 6
   from    to HS_Code Value_OMU_Total Count Average_OMU
  <int> <int>   <int>           <dbl> <int>       <dbl>
1     1   144  848190          356190     1      356190
2     1   145  190230           44310     1       44310
3     2   146  262190               0     1         NaN
# ℹ 185 more rows
…
pollock_graph <- tbl_graph(nodes = pollock_nodes_extract,
                       edges = pollock_edges_aggregated,
                       directed = TRUE)

pollock_graph

# A tbl_graph: 110 nodes and 76 edges
#
# A directed multigraph with 44 components
#
# A tibble: 110 × 1
  id                                   
  <chr>                                
1 "Ancla de Oro Kga Import"            
2 "Asiotr Green  SE Marine sanctuary"  
3 "Barents Sea  GmbH Cargo "           
4 "Belgian Scallop Harbor ОАО Freight "
5 "Blue Nile  OJSC Logistics"          
6 "Blue Water Ventures NV"             
# ℹ 104 more rows
#
# A tibble: 76 × 8
   from    to HS_Code Value_OMU_Total Count Average_OMU Total_Weight_KG
  <int> <int>   <int>           <dbl> <int>       <dbl>           <int>
1     1    60  262190               0     1         NaN           20710
2     2    61  390210           27410     1       27410           21010
3     3    62  841830               0     1         NaN            7780
# ℹ 73 more rows
# ℹ 1 more variable: Average_Weight_KG <dbl>
…
salmonwgl_graph <- tbl_graph(nodes = salmonwgl_nodes_extract,
                       edges = salmonwgl_edges_aggregated,
                       directed = TRUE)

salmonwgl_graph

# A tbl_graph: 120 nodes and 87 edges
#
# A directed acyclic multigraph with 39 components
#
# A tibble: 120 × 1
  id                                    
  <chr>                                 
1 2 Limited Liability Company           
2 Agua Limited Liability Company Transit
3 Ancla del Mar Marine ecology          
4 Asiotr Green  SE Marine sanctuary     
5 Bujagali Falls  Oyj Marine            
6 Caspian Sea   Company Seafarer        
# ℹ 114 more rows
#
# A tibble: 87 × 8
   from    to HS_Code Value_OMU_Total Count Average_OMU Total_Weight_KG
  <int> <int>   <int>           <dbl> <int>       <dbl>           <int>
1     1    67   30323           36125     1       36125           26055
2     2    68  440890               0     3         NaN          104730
3     3    69  160529           87670     1       87670           18000
# ℹ 84 more rows
# ℹ 1 more variable: Average_Weight_KG <dbl>
…
salmon_graph <- tbl_graph(nodes = salmon_nodes_extract,
                       edges = salmon_edges_aggregated,
                       directed = TRUE)

salmon_graph

# A tbl_graph: 8 nodes and 8 edges
#
# A directed acyclic multigraph with 2 components
#
# A tibble: 8 × 1
  id                                       
  <chr>                                    
1 Kallianassa Ltd. Corporation Oceanography
2 Samaka Chart ОАО Delivery                
3 Coral Cove BV Delivery                   
4 Marine Mermaids SRL United               
5 Punjab s A/S Marine                      
6 -2                                       
# ℹ 2 more rows
#
# A tibble: 8 × 8
   from    to HS_Code Value_OMU_Total Count Average_OMU Total_Weight_KG
  <int> <int>   <int>           <dbl> <int>       <dbl>           <int>
1     1     3  400821          240955    11       21905          131065
2     1     4  392690               0     8         NaN           28480
3     1     5  392113               0    14         NaN          102130
# ℹ 5 more rows
# ℹ 1 more variable: Average_Weight_KG <dbl>
…
shark_graph <- tbl_graph(nodes = shark_nodes_extract,
                       edges = shark_edges_aggregated,
                       directed = TRUE)

shark_graph

# A tbl_graph: 11 nodes and 15 edges
#
# A directed multigraph with 4 components
#
# A tibble: 11 × 1
  id                                         
  <chr>                                      
1 "Jammu Limited Liability Company"          
2 "Lake Nakuru  Co Freight "                 
3 "Mar del Norte OJSC"                       
4 "Zambezi Delta  Inc Brothers"              
5 "Coral del Sur Ltd. Corporation Investment"
6 "ReefRider Foods Ltd. Corporation Family"  
# ℹ 5 more rows
#
# A tibble: 15 × 8
   from    to HS_Code Value_OMU_Total Count Average_OMU Total_Weight_KG
  <int> <int>   <int>           <dbl> <int>       <dbl>           <int>
1     1     5  920590               0    64         NaN          171970
2     1     5  920710               0    18         NaN           43830
3     1     5  920790               0     5         NaN           35425
# ℹ 12 more rows
# ℹ 1 more variable: Average_Weight_KG <dbl>
…
tuna_graph <- tbl_graph(nodes = tuna_nodes_extract,
                       edges = tuna_edges_aggregated,
                       directed = TRUE)

tuna_graph

# A tbl_graph: 29 nodes and 39 edges
#
# A directed multigraph with 7 components
#
# A tibble: 29 × 1
  id                                           
  <chr>                                        
1 Andhra Pradesh  Sp Worldwide                 
2 Arunachal Pradesh s AS Abalone               
3 Brisa Marina Surfboard AB Marine conservation
4 Dutch Mussels Pic Marine biology             
5 Joseph Limited Liability Company             
6 Sea Breeze Marine biology                    
# ℹ 23 more rows
#
# A tibble: 39 × 6
   from    to HS_Code Value_OMU_Total Count Average_OMU
  <int> <int>   <int>           <dbl> <int>       <dbl>
1     1    10  200911               0     2         NaN
2     1    10  220300               0    37         NaN
3     1    10  440791               0     9         NaN
# ℹ 36 more rows
…
