ISSS608-VAA - Take-Home Exercise 3
…
Checking for duplicates

Show me the good stuff

mc3_edges_clean[duplicated(mc3_edges_clean),]

# A tibble: 2,238 × 4
   source                      target           type             weights
   <chr>                       <chr>            <chr>              <int>
 1 1 Ltd. Liability Co         Yesenia Oliver   Company Contacts       1
 2 1 Swordfish Ltd Solutions   Daniel Reese     Company Contacts       1
 3 6 GmbH & Co. KG             Monique Cummings Company Contacts       1
 4 6 GmbH & Co. KG             Monique Cummings Company Contacts       1
 5 Mar de la Luz BV            Monique Cummings Company Contacts       1
 6 7 Ltd. Liability Co Express Cassidy Sherman  Beneficial Owner       1
 7 7 Ltd. Liability Co Express Dawn West        Beneficial Owner       1
 8 7 Ltd. Liability Co Express Hannah Franco    Company Contacts       1
 9 7 Ltd. Liability Co Express Michael Morrison Beneficial Owner       1
10 7 Ltd. Liability Co Express Nicole Carrillo  Beneficial Owner       1
# ℹ 2,228 more rows
…
